/DELPHI_1991_I301657/d02-x01-y01
Histo1D      26 bins/pts

/DELPHI_1991_I301657/d04-x01-y01
Profile1D     1 bins/pts

/DELPHI_1995_S3137023/d02-x01-y01
Histo1D       6 bins/pts

/DELPHI_1995_S3137023/d03-x01-y01
Histo1D       3 bins/pts

/DELPHI_1995_S3137023/weightedTotalNumSigma1385Plus
Counter       - bins/pts

/DELPHI_1995_S3137023/weightedTotalNumXiMinus
Counter       - bins/pts

/DELPHI_1996_S3430090/TotalPartNum
Counter       - bins/pts

/DELPHI_1996_S3430090/d01-x01-y01
Histo1D      25 bins/pts

/DELPHI_1996_S3430090/d02-x01-y01
Histo1D      17 bins/pts

/DELPHI_1996_S3430090/d03-x01-y01
Histo1D      25 bins/pts

/DELPHI_1996_S3430090/d04-x01-y01
Histo1D      17 bins/pts

/DELPHI_1996_S3430090/d05-x01-y01
Histo1D      21 bins/pts

/DELPHI_1996_S3430090/d06-x01-y01
Histo1D      21 bins/pts

/DELPHI_1996_S3430090/d07-x01-y01
Histo1D      23 bins/pts

/DELPHI_1996_S3430090/d08-x01-y01
Histo1D      27 bins/pts

/DELPHI_1996_S3430090/d09-x01-y01
Profile1D    23 bins/pts

/DELPHI_1996_S3430090/d10-x01-y01
Profile1D    23 bins/pts

/DELPHI_1996_S3430090/d11-x01-y01
Histo1D      20 bins/pts

/DELPHI_1996_S3430090/d12-x01-y01
Histo1D      22 bins/pts

/DELPHI_1996_S3430090/d13-x01-y01
Histo1D      15 bins/pts

/DELPHI_1996_S3430090/d14-x01-y01
Histo1D      16 bins/pts

/DELPHI_1996_S3430090/d15-x01-y01
Histo1D      19 bins/pts

/DELPHI_1996_S3430090/d16-x01-y01
Histo1D      15 bins/pts

/DELPHI_1996_S3430090/d17-x01-y01
Histo1D      20 bins/pts

/DELPHI_1996_S3430090/d18-x01-y01
Histo1D      23 bins/pts

/DELPHI_1996_S3430090/d19-x01-y01
Histo1D      22 bins/pts

/DELPHI_1996_S3430090/d20-x01-y01
Histo1D      16 bins/pts

/DELPHI_1996_S3430090/d21-x01-y01
Histo1D       9 bins/pts

/DELPHI_1996_S3430090/d22-x01-y01
Histo1D      13 bins/pts

/DELPHI_1996_S3430090/d23-x01-y01
Histo1D      15 bins/pts

/DELPHI_1996_S3430090/d24-x01-y01
Histo1D      11 bins/pts

/DELPHI_1996_S3430090/d25-x01-y01
Histo1D      19 bins/pts

/DELPHI_1996_S3430090/d26-x01-y01
Histo1D      17 bins/pts

/DELPHI_1996_S3430090/d27-x01-y01
Histo1D      15 bins/pts

/DELPHI_1996_S3430090/d28-x01-y01
Histo1D      15 bins/pts

/DELPHI_1996_S3430090/d29-x01-y01
Histo1D      15 bins/pts

/DELPHI_1996_S3430090/d30-x01-y01
Histo1D      15 bins/pts

/DELPHI_1996_S3430090/d31-x01-y01
Histo1D      15 bins/pts

/DELPHI_1996_S3430090/d32-x01-y01
Histo1D      16 bins/pts

/DELPHI_1996_S3430090/d33-x01-y01
Histo1D      50 bins/pts

/DELPHI_1996_S3430090/d34-x01-y01
Histo1D      25 bins/pts

/DELPHI_1996_S3430090/d35-x01-y01
Histo1D       1 bins/pts

/DELPHI_1996_S3430090/d36-x01-y01
Histo1D       1 bins/pts

/DELPHI_1996_S3430090/d36-x01-y02
Histo1D       1 bins/pts

/DELPHI_1996_S3430090/d36-x01-y03
Histo1D       1 bins/pts

/DELPHI_1996_S3430090/d36-x01-y04
Histo1D       1 bins/pts

/DELPHI_1996_S3430090/d36-x01-y05
Histo1D       1 bins/pts

/DELPHI_1996_S3430090/d36-x01-y06
Histo1D       1 bins/pts

/DELPHI_1996_S3430090/d36-x01-y07
Histo1D       1 bins/pts

/DELPHI_1996_S3430090/d36-x01-y08
Histo1D       1 bins/pts

/DELPHI_1996_S3430090/d36-x01-y09
Histo1D       1 bins/pts

/DELPHI_1996_S3430090/d37-x01-y01
Histo1D       1 bins/pts

/DELPHI_1996_S3430090/d38-x01-y01
Histo1D       1 bins/pts

/DELPHI_1996_S3430090/d38-x01-y02
Histo1D       1 bins/pts

/DELPHI_1996_S3430090/d38-x01-y03
Histo1D       1 bins/pts

/DELPHI_1996_S3430090/d38-x01-y04
Histo1D       1 bins/pts

/DELPHI_1996_S3430090/d38-x01-y05
Histo1D       1 bins/pts

/DELPHI_1996_S3430090/d39-x01-y01
Histo1D       1 bins/pts

/DELPHI_1996_S3430090/d39-x01-y02
Histo1D       1 bins/pts

/DELPHI_1996_S3430090/d40-x01-y01
Histo1D       1 bins/pts

/DELPHI_1996_S3430090/d40-x01-y02
Histo1D       1 bins/pts

/DELPHI_1996_S3430090/d40-x01-y03
Histo1D       1 bins/pts

/DELPHI_1996_S3430090/d40-x01-y04
Histo1D       1 bins/pts

/DELPHI_1996_S3430090/d40-x01-y05
Histo1D       1 bins/pts

/DELPHI_1996_S3430090/d40-x01-y06
Histo1D       1 bins/pts

/DELPHI_1996_S3430090/d40-x01-y07
Histo1D       1 bins/pts

/DELPHI_1996_S3430090/d40-x01-y08
Histo1D       1 bins/pts

/DELPHI_1996_S3430090/passedCut3WeightSum
Counter       - bins/pts

/DELPHI_1996_S3430090/passedCut4WeightSum
Counter       - bins/pts

/DELPHI_1996_S3430090/passedCut5WeightSum
Counter       - bins/pts

/DELPHI_1996_S3430090/passedCutWeightSum
Counter       - bins/pts

/DELPHI_1999_S3960137/d01-x01-y01
Histo1D       7 bins/pts

/DELPHI_1999_S3960137/d01-x01-y02
Histo1D       6 bins/pts

/DELPHI_1999_S3960137/d01-x01-y03
Histo1D       6 bins/pts

/DELPHI_2002_069_CONF_603/d01-x01-y01
Histo1D      10 bins/pts

/DELPHI_2002_069_CONF_603/d02-x01-y01
Histo1D      10 bins/pts

/DELPHI_2002_069_CONF_603/d04-x01-y01
Profile1D     1 bins/pts

/DELPHI_2002_069_CONF_603/d05-x01-y01
Profile1D     1 bins/pts

/DELPHI_2011_I890503/d01-x01-y01
Histo1D       9 bins/pts

/DELPHI_2011_I890503/d02-x01-y01
Profile1D     1 bins/pts

